2018-3-16: {"en":"unauthorized user"}
2018-3-16: {}
2018-3-16: {"en":"unauthorized user"}
2018-3-16: {}
2018-3-16: {"en":"unauthorized user"}
2018-3-16: {}
2018-3-16: {"en":"unauthorized user"}
2018-3-16: {}
2018-3-16: {"en":"unauthorized user"}
2018-3-16: {}
2018-3-16: {"en":"unauthorized user"}
2018-3-16: {}
2018-3-16: "invalid user"
2018-3-16: "invalid user"
2018-3-16: {"en":"invalid parameters"}
2018-3-16: {"en":"invalid parameters"}
2018-3-19: {"en":"invalid user"}
2018-3-19: {"en":"invalid user"}
2018-3-19: {"en":"invalid user"}
2018-3-19: {"en":"invalid user"}
2018-3-19: {"en":"invalid id"}
2018-3-19: {"en":"invalid id"}
2018-3-19: {"en":"invalid parameters"}
2018-3-19: {}
2018-3-19: {}
2018-3-19: {}
2018-3-19: {}
2018-3-20: {"status":404}
2018-3-20: {"status":404}
2018-3-20: {"status":404}
2018-3-20: {"code":11000,"index":0,"errmsg":"E11000 duplicate key error collection: zynnadb.verticals index: name_1 dup key: { : \"vertical 3\" }","op":{"updatedAt":"2018-03-19T20:07:32.895Z","createdAt":"2018-03-19T20:07:32.895Z","name":"vertical 3","_id":"5ab01884ff24673ce4eaeafe","isActive":true,"__v":0}}
2018-3-20: {"code":11000,"index":0,"errmsg":"E11000 duplicate key error collection: zynnadb.verticals index: name_1 dup key: { : \"vertical 3\" }","op":{"updatedAt":"2018-03-19T20:08:21.320Z","createdAt":"2018-03-19T20:08:21.320Z","name":"vertical 3","_id":"5ab018b5ff24673ce4eaeaff","isActive":true,"__v":0}}
2018-3-20: {"code":11000,"index":0,"errmsg":"E11000 duplicate key error collection: zynnadb.verticals index: name_1 dup key: { : \"vertical 3\" }","op":{"updatedAt":"2018-03-19T20:08:30.719Z","createdAt":"2018-03-19T20:08:30.719Z","name":"vertical 3","_id":"5ab018beff24673ce4eaeb00","isActive":true,"__v":0}}
2018-3-20: {"en":"Duplicate Entry"}
2018-3-20: {"status":404}
2018-3-20: {"status":404}
2018-3-20: {"code":11000,"index":0,"errmsg":"E11000 duplicate key error collection: zynnadb.agents index: forms.formNumber_1 dup key: { : null }","op":{"updatedAt":"2018-03-20T05:35:37.221Z","createdAt":"2018-03-20T05:35:37.221Z","isActive":true,"password":"$2a$10$U.04IcBCeV32wcNXA.15d.UQO2dDpKcPLaRpORUNUjt/Z58v09JJ2","email":"munish@mobileoid3.com","address":{"pincode":"10001","city":"City Info","state":"State Info","country":"country Info","_id":"5ab09da951054410984b409e","addressLine":["Address Line 2"]},"gender":"male","dob":"1993-08-30T00:00:00.000Z","landline":"","mobile":"552889965","name":"munish","_id":"5ab09da951054410984b409d","forms":[],"__v":0}}
2018-3-20: {"code":11000,"index":0,"errmsg":"E11000 duplicate key error collection: zynnadb.agents index: forms.formNumber_1 dup key: { : null }","op":{"updatedAt":"2018-03-20T05:35:43.050Z","createdAt":"2018-03-20T05:35:43.050Z","isActive":true,"password":"$2a$10$oTLOjbqgzIIAHwf6Bjn7GuGB1ZvIxKW18hj4qotA9ECvUlUx4xDTq","email":"munish@mobileoid4.com","address":{"pincode":"10001","city":"City Info","state":"State Info","country":"country Info","_id":"5ab09daf51054410984b40a0","addressLine":["Address Line 2"]},"gender":"male","dob":"1993-08-30T00:00:00.000Z","landline":"","mobile":"552889965","name":"munish","_id":"5ab09daf51054410984b409f","forms":[],"__v":0}}
2018-3-20: {"code":11000,"index":0,"errmsg":"E11000 duplicate key error collection: zynnadb.agents index: forms.formNumber_1 dup key: { : null }","op":{"updatedAt":"2018-03-20T05:35:48.093Z","createdAt":"2018-03-20T05:35:48.093Z","isActive":true,"password":"$2a$10$sky/EduXkJT1N41CNX0CaOCCMZvg/wnyw2ffAW.GD6BeRi8oVcvZq","email":"munish@mobileoid4.com","address":{"pincode":"10001","city":"City Info","state":"State Info","country":"country Info","_id":"5ab09db451054410984b40a2","addressLine":["Address Line 2"]},"gender":"male","dob":"1993-08-30T00:00:00.000Z","landline":"","mobile":"232312312","name":"munish","_id":"5ab09db451054410984b40a1","forms":[],"__v":0}}
2018-3-20: {"name":"saroj.rout@mobileoid.com","message":"email sent successfully"}
2018-3-20: {"name":"khushboo.sachan@mobileoid2.com","message":"email sent successfully"}
2018-3-20: {"en":"invalid token"}
2018-3-20: {}
2018-3-20: {}
2018-3-20: {}
2018-3-20: {"en":"invalid parameters"}
2018-3-20: {"en":"invalid parameters"}
2018-3-20: {"name":"shubham.negi@mobileoid2.com","message":"email sent successfully"}
2018-3-20: {"status":404}
2018-3-20: {"status":404}
2018-3-20: {"status":404}
2018-3-20: {"en":"unauthorized user"}
2018-3-20: {"en":"invalid parameters"}
2018-3-20: {"name":"shubham.negi@mobileoid2.com","message":"email sent successfully"}
2018-3-20: {"name":"khushboo.sachan@mobileoid2.com","message":"email sent successfully"}
2018-3-20: "invalid user"
2018-3-20: {"status":404}
2018-3-20: {"status":404}
2018-3-20: {"name":"munish@mobileoid2.com","message":"email sent successfully"}
2018-3-20: {"en":"invalid user"}
2018-3-20: {"en":"invalid user"}
2018-3-20: {"en":"invalid user"}
2018-3-20: {"en":"invalid user"}
2018-3-20: {"en":"invalid user"}
2018-3-20: {"en":"invalid user"}
2018-3-20: {"en":"invalid user"}
2018-3-20: {"en":"invalid user"}
2018-3-20: {"en":"invalid user"}
2018-3-20: {"en":"invalid user"}
2018-3-20: {"en":"invalid user"}
2018-3-20: {"en":"invalid user"}
2018-3-20: {"en":"invalid user"}
2018-3-20: {"en":"invalid user"}
2018-3-20: {"en":"invalid user"}
2018-3-20: {"en":"invalid user"}
2018-3-20: {"name":"khushboo.sachan@mobileoid2.com","message":"email sent successfully"}
2018-3-20: {"en":"user already Exist"}
2018-3-20: {"en":"user already Exist"}
2018-3-20: {"en":"user already Exist"}
2018-3-20: {"name":"saroj.sachan@mobileoid2.com","message":"email sent successfully"}
2018-3-20: {"name":"saroj.sachan@mobileoid2.com","message":"email sent successfully"}
2018-3-20: {"name":"saroj.sachan@mobileoid2.com","message":"email sent successfully"}
2018-3-20: {"en":"user already Exist"}
2018-3-20: {"en":"user already Exist"}
2018-3-20: {"en":"user already Exist"}
2018-3-20: {"name":"saroj.sachan@mobileoid2.com","message":"email sent successfully"}
2018-3-20: {"en":"user already Exist"}
2018-3-20: {"name":"saroj.sachan@mobileoid2.com","message":"email sent successfully"}
2018-3-20: {"name":"saroj.sachan@mobileoid2.com","message":"email sent successfully"}
2018-3-20: {"name":"saroj@mobileoid2.com","message":"email sent successfully"}
2018-3-20: {"name":"dsadsa@mobileoid2.com","message":"email sent successfully"}
2018-3-20: {"name":"dsadsadsa@mobileoid2.com","message":"email sent successfully"}
2018-3-20: {"name":"vcvc@mobileoid2.com","message":"email sent successfully"}
2018-3-20: {"name":"ewqewq@mobileoid2.com","message":"email sent successfully"}
2018-3-20: {"name":"nhnh@mobileoid2.com","message":"email sent successfully"}
2018-3-20: {"name":"xzcxz@mobileoid2.com","message":"email sent successfully"}
2018-3-20: {"name":"lkjljk@mobileoid2.com","message":"email sent successfully"}
2018-3-20: {"name":"iuouou@mobileoid2.com","message":"email sent successfully"}
2018-3-20: {"name":"retre@mobileoid2.com","message":"email sent successfully"}
2018-3-20: {"name":"bbfdbdf@mobileoid2.com","message":"email sent successfully"}
2018-3-20: {"name":"vvv@mobileoid2.com","message":"email sent successfully"}
2018-3-21: {}
2018-3-21: {}
2018-3-21: {"en":"invalid parameters"}
2018-3-21: {"en":"invalid parameters"}
2018-3-21: {"en":"invalid parameters"}
2018-3-21: {"en":"invalid parameters"}
2018-3-21: {"en":"invalid parameters"}
2018-3-21: {"en":"Duplicate Entry"}
2018-3-21: {"en":"Duplicate Entry"}
2018-3-21: {"en":"Duplicate Entry"}
2018-3-21: {"en":"Duplicate Entry"}
2018-3-21: {"en":"invalid parameters"}
2018-3-21: {"en":"invalid parameters"}
2018-3-21: {"en":"invalid parameters"}
2018-3-21: {"name":"MongoError","message":"E11000 duplicate key error collection: zynnadb.verticals index: name_1 dup key: { : \"vertical 2\" }","ok":0,"errmsg":"E11000 duplicate key error collection: zynnadb.verticals index: name_1 dup key: { : \"vertical 2\" }","code":11000,"codeName":"DuplicateKey"}
2018-3-21: {"name":"MongoError","message":"E11000 duplicate key error collection: zynnadb.verticals index: name_1 dup key: { : \"vertical 2\" }","ok":0,"errmsg":"E11000 duplicate key error collection: zynnadb.verticals index: name_1 dup key: { : \"vertical 2\" }","code":11000,"codeName":"DuplicateKey"}
2018-3-21: {"name":"MongoError","message":"E11000 duplicate key error collection: zynnadb.verticals index: name_1 dup key: { : \"vertical 2\" }","ok":0,"errmsg":"E11000 duplicate key error collection: zynnadb.verticals index: name_1 dup key: { : \"vertical 2\" }","code":11000,"codeName":"DuplicateKey"}
2018-3-21: {"name":"MongoError","message":"E11000 duplicate key error collection: zynnadb.verticals index: name_1 dup key: { : \"vertical 2\" }","ok":0,"errmsg":"E11000 duplicate key error collection: zynnadb.verticals index: name_1 dup key: { : \"vertical 2\" }","code":11000,"codeName":"DuplicateKey"}
2018-3-21: {"name":"MongoError","message":"E11000 duplicate key error collection: zynnadb.verticals index: name_1 dup key: { : \"vertical 2\" }","ok":0,"errmsg":"E11000 duplicate key error collection: zynnadb.verticals index: name_1 dup key: { : \"vertical 2\" }","code":11000,"codeName":"DuplicateKey"}
2018-3-21: {"name":"MongoError","message":"E11000 duplicate key error collection: zynnadb.verticals index: name_1 dup key: { : \"vertical 2\" }","ok":0,"errmsg":"E11000 duplicate key error collection: zynnadb.verticals index: name_1 dup key: { : \"vertical 2\" }","code":11000,"codeName":"DuplicateKey"}
2018-3-21: {}
2018-3-21: {"name":"MongoError","message":"E11000 duplicate key error collection: zynnadb.verticals index: name_1 dup key: { : \"vertical 2\" }","ok":0,"errmsg":"E11000 duplicate key error collection: zynnadb.verticals index: name_1 dup key: { : \"vertical 2\" }","code":11000,"codeName":"DuplicateKey"}
2018-3-21: {"name":"MongoError","message":"E11000 duplicate key error collection: zynnadb.verticals index: name_1 dup key: { : \"vertical 2\" }","ok":0,"errmsg":"E11000 duplicate key error collection: zynnadb.verticals index: name_1 dup key: { : \"vertical 2\" }","code":11000,"codeName":"DuplicateKey"}
2018-3-21: {"name":"MongoError","message":"E11000 duplicate key error collection: zynnadb.categories index: name_1 dup key: { : \"te\" }","ok":0,"errmsg":"E11000 duplicate key error collection: zynnadb.categories index: name_1 dup key: { : \"te\" }","code":11000,"codeName":"DuplicateKey"}
2018-3-21: {"en":"invalid data"}
2018-3-21: {"en":"invalid parameters"}
2018-3-21: {"en":"invalid token"}
2018-3-21: {}
2018-3-21: {"en":"Internal Error"}
2018-3-21: {"en":"Internal Error"}
2018-3-21: {"en":"Internal Error"}
2018-3-21: {"en":"Internal Error"}
2018-3-21: {"en":"Internal Error"}
2018-3-21: {"en":"Internal Error"}
2018-3-21: {"en":"Internal Error"}
2018-3-21: {"en":"invalid parameters"}
2018-3-21: {"en":"invalid token"}
2018-3-21: {"en":"invalid user"}
2018-3-21: {"en":"invalid user"}
2018-3-21: {"en":"invalid user"}
2018-3-21: {"en":"invalid user"}
2018-3-21: {"en":"invalid user"}
2018-3-21: {"en":"invalid user"}
2018-3-21: {"en":"invalid user"}
2018-3-21: {"en":"invalid user"}
2018-3-21: {"errors":{"address.city":{"message":"Cast to String failed for value \"{}\" at path \"address.city\"","name":"CastError","stringValue":"\"{}\"","kind":"String","value":{},"path":"address.city","reason":{"message":"Cast to string failed for value \"{}\" at path \"address.city\"","name":"CastError","stringValue":"\"{}\"","kind":"string","value":{},"path":"address.city"}},"verticals.name":{"message":"Path `verticals.name` is required.","name":"ValidatorError","properties":{"type":"required","message":"Path `{PATH}` is required.","path":"verticals.name"},"kind":"required","path":"verticals.name","$isValidatorError":true},"verticals._id":{"message":"Path `verticals._id` is required.","name":"ValidatorError","properties":{"type":"required","message":"Path `{PATH}` is required.","path":"verticals._id"},"kind":"required","path":"verticals._id","$isValidatorError":true}},"_message":"Forms validation failed","message":"Forms validation failed: address.city: Cast to String failed for value \"{}\" at path \"address.city\", verticals.name: Path `verticals.name` is required., verticals._id: Path `verticals._id` is required.","name":"ValidationError"}
2018-3-21: {"errors":{"verticals.name":{"message":"Path `verticals.name` is required.","name":"ValidatorError","properties":{"type":"required","message":"Path `{PATH}` is required.","path":"verticals.name"},"kind":"required","path":"verticals.name","$isValidatorError":true},"verticals._id":{"message":"Path `verticals._id` is required.","name":"ValidatorError","properties":{"type":"required","message":"Path `{PATH}` is required.","path":"verticals._id"},"kind":"required","path":"verticals._id","$isValidatorError":true}},"_message":"Forms validation failed","message":"Forms validation failed: verticals.name: Path `verticals.name` is required., verticals._id: Path `verticals._id` is required.","name":"ValidationError"}
2018-3-21: {"errors":{"verticals.name":{"message":"Path `verticals.name` is required.","name":"ValidatorError","properties":{"type":"required","message":"Path `{PATH}` is required.","path":"verticals.name"},"kind":"required","path":"verticals.name","$isValidatorError":true},"verticals._id":{"message":"Path `verticals._id` is required.","name":"ValidatorError","properties":{"type":"required","message":"Path `{PATH}` is required.","path":"verticals._id"},"kind":"required","path":"verticals._id","$isValidatorError":true}},"_message":"Forms validation failed","message":"Forms validation failed: verticals.name: Path `verticals.name` is required., verticals._id: Path `verticals._id` is required.","name":"ValidationError"}
2018-3-21: {"errors":{"verticals.name":{"message":"Path `verticals.name` is required.","name":"ValidatorError","properties":{"type":"required","message":"Path `{PATH}` is required.","path":"verticals.name"},"kind":"required","path":"verticals.name","$isValidatorError":true},"verticals._id":{"message":"Path `verticals._id` is required.","name":"ValidatorError","properties":{"type":"required","message":"Path `{PATH}` is required.","path":"verticals._id"},"kind":"required","path":"verticals._id","$isValidatorError":true}},"_message":"Forms validation failed","message":"Forms validation failed: verticals.name: Path `verticals.name` is required., verticals._id: Path `verticals._id` is required.","name":"ValidationError"}
2018-3-21: {"errors":{"verticals.name":{"message":"Path `verticals.name` is required.","name":"ValidatorError","properties":{"type":"required","message":"Path `{PATH}` is required.","path":"verticals.name"},"kind":"required","path":"verticals.name","$isValidatorError":true},"verticals._id":{"message":"Path `verticals._id` is required.","name":"ValidatorError","properties":{"type":"required","message":"Path `{PATH}` is required.","path":"verticals._id"},"kind":"required","path":"verticals._id","$isValidatorError":true}},"_message":"Forms validation failed","message":"Forms validation failed: verticals.name: Path `verticals.name` is required., verticals._id: Path `verticals._id` is required.","name":"ValidationError"}
2018-3-21: {"errors":{"verticals.name":{"message":"Path `verticals.name` is required.","name":"ValidatorError","properties":{"type":"required","message":"Path `{PATH}` is required.","path":"verticals.name"},"kind":"required","path":"verticals.name","$isValidatorError":true},"verticals._id":{"message":"Path `verticals._id` is required.","name":"ValidatorError","properties":{"type":"required","message":"Path `{PATH}` is required.","path":"verticals._id"},"kind":"required","path":"verticals._id","$isValidatorError":true}},"_message":"Forms validation failed","message":"Forms validation failed: verticals.name: Path `verticals.name` is required., verticals._id: Path `verticals._id` is required.","name":"ValidationError"}
2018-3-22: {"name":"saz@gmail.com","message":"email sent successfully"}
2018-3-22: {"name":"ravi@gmail.com","message":"email sent successfully"}
2018-3-22: {"en":"invalid token"}
2018-3-22: {"name":"MongoError","message":"Bad projection specification, cannot include fields or add computed fields during an exclusion projection: { user: 0, name: 1 }","ok":0,"errmsg":"Bad projection specification, cannot include fields or add computed fields during an exclusion projection: { user: 0, name: 1 }","code":40179,"codeName":"Location40179"}
2018-3-22: {"name":"MongoError","message":"$lookup with 'pipeline' may not specify 'localField' or 'foreignField'","ok":0,"errmsg":"$lookup with 'pipeline' may not specify 'localField' or 'foreignField'","code":9,"codeName":"FailedToParse"}
2018-3-22: {"en":"invalid user"}
2018-3-22: {"en":"invalid user"}
2018-3-22: {"en":"invalid user"}
2018-3-22: {"en":"invalid user"}
2018-3-22: {"en":"invalid token"}
2018-3-22: {"en":"invalid token"}
2018-3-22: {"en":"invalid token"}
2018-3-22: {"en":"invalid token"}
2018-3-22: {"en":"invalid token"}
2018-3-22: {"en":"invalid token"}
2018-3-22: {"en":"invalid token"}
2018-3-22: {"en":"invalid token"}
2018-3-22: {}
2018-3-22: {}
2018-3-22: {}
2018-3-22: {"name":"MongoError","message":"E11000 duplicate key error collection: zynnadb.categories index: name_1 dup key: { : \"q2e\" }","driver":true,"index":0,"code":11000,"errmsg":"E11000 duplicate key error collection: zynnadb.categories index: name_1 dup key: { : \"q2e\" }"}
2018-3-22: {"code":11000,"index":0,"errmsg":"E11000 duplicate key error collection: zynnadb.categories index: name_1 dup key: { : \"qwe\" }","op":{"updatedAt":"2018-03-22T12:56:14.890Z","createdAt":"2018-03-22T12:56:14.890Z","isActive":true,"name":"qwe","_id":"5ab3a7ee0f962a7b0cea7335","postions":[],"__v":0}}
2018-3-23: {"status":404}
2018-3-23: {"status":404}
2018-3-23: {"status":404}
2018-3-23: {"status":404}
2018-3-23: "invalid user"
2018-3-23: {"name":"MongoError","message":"Topology was destroyed"}
2018-3-23: {"name":"MongoError","message":"Topology was destroyed"}
2018-3-23: {"name":"MongoError","message":"Topology was destroyed"}
2018-3-23: {"en":"invalid token"}
2018-3-23: {"en":"invalid token"}
2018-3-23: {"en":"invalid token"}
2018-3-23: {"en":"invalid token"}
2018-3-23: {"en":"invalid token"}
2018-3-23: {"en":"invalid token"}
2018-3-23: {"en":"invalid token"}
2018-3-23: {"en":"invalid token"}
2018-3-23: {"en":"invalid token"}
2018-3-23: {"en":"invalid token"}
2018-3-24: {"en":"invalid token"}
2018-3-24: {"en":"invalid token"}
2018-3-24: {"en":"invalid token"}
2018-3-24: {"en":"invalid token"}
2018-3-24: {"en":"invalid token"}
2018-3-24: {"en":"invalid token"}
2018-3-25: {"en":"invalid user"}
2018-3-25: {"en":"invalid user"}
2018-3-25: {"en":"invalid parameters"}
2018-3-25: {"en":"invalid parameters"}
2018-3-25: {"en":"invalid user"}
2018-3-25: {"en":"invalid user"}
2018-3-25: {}
2018-3-25: "Invalid Verticals"
2018-3-25: "Invalid Verticals"
2018-3-25: "Invalid Verticals"
2018-3-25: "Invalid Verticals"
2018-3-25: "Invalid Verticals"
2018-3-25: "Invalid Verticals"
2018-3-25: {"en":"invalid token"}
2018-3-25: {"en":"invalid token"}
2018-3-25: {"en":"invalid token"}
2018-3-25: {"en":"invalid token"}
2018-3-25: {"en":"invalid token"}
2018-3-25: {"en":"invalid token"}
2018-3-25: {"en":"invalid token"}
2018-3-25: {"en":"invalid token"}
2018-3-25: {"en":"invalid token"}
2018-3-25: {"en":"invalid token"}
2018-3-25: {"en":"invalid token"}
2018-3-25: {"en":"invalid token"}
2018-3-25: {"en":"invalid token"}
2018-3-25: {"en":"invalid token"}
2018-3-25: {"en":"invalid token"}
2018-3-25: {"en":"invalid token"}
2018-3-25: {"en":"invalid token"}
2018-3-25: {"en":"invalid token"}
2018-3-25: {"en":"invalid token"}
2018-3-25: {"en":"invalid token"}
2018-3-25: {"en":"invalid token"}
2018-3-25: {"en":"invalid token"}
2018-3-25: {"en":"invalid token"}
2018-3-25: {"en":"invalid token"}
2018-3-25: {"en":"invalid token"}
2018-3-25: {"en":"invalid token"}
2018-3-25: {"en":"invalid token"}
2018-3-25: {"en":"invalid token"}
2018-3-25: {"en":"invalid token"}
2018-3-25: {"en":"invalid token"}
2018-3-25: {"en":"invalid token"}
2018-3-25: {"en":"invalid token"}
2018-3-25: {"en":"invalid token"}
2018-3-25: {"en":"invalid token"}
2018-3-25: {"en":"invalid token"}
2018-3-25: {"en":"invalid token"}
2018-3-25: {"en":"invalid token"}
2018-3-25: {"en":"invalid token"}
2018-3-25: {"en":"invalid token"}
2018-3-25: {"en":"invalid token"}
2018-3-25: {"en":"invalid token"}
2018-3-25: {"en":"invalid token"}
2018-3-25: {"en":"invalid token"}
2018-3-25: {"en":"invalid token"}
2018-3-25: {"en":"invalid token"}
2018-3-25: {"en":"invalid token"}
2018-3-25: {"en":"invalid token"}
2018-3-25: {"en":"invalid token"}
2018-3-25: {"en":"invalid token"}
2018-3-25: {"en":"invalid token"}
2018-3-25: {"en":"invalid token"}
2018-3-25: {"en":"invalid token"}
2018-3-25: {"en":"invalid token"}
2018-3-25: {"en":"invalid token"}
2018-3-25: {"en":"invalid token"}
2018-3-25: {"en":"invalid token"}
2018-3-25: {"en":"invalid token"}
2018-3-25: {"en":"invalid token"}
2018-3-25: {"en":"invalid token"}
2018-3-25: {"en":"invalid token"}
2018-3-25: {"en":"invalid token"}
2018-3-25: {"en":"invalid token"}
2018-3-25: {"en":"invalid token"}
2018-3-25: {"en":"invalid token"}
2018-3-25: {"en":"invalid token"}
2018-3-25: {"en":"invalid token"}
2018-3-25: {"en":"invalid token"}
2018-3-26: {"en":"invalid token"}
2018-3-26: {"en":"invalid token"}
2018-3-26: {"en":"invalid token"}
2018-3-26: {"en":"invalid token"}
2018-3-26: {"en":"invalid token"}
2018-3-26: {"en":"invalid token"}
2018-3-26: {"en":"invalid token"}
2018-3-26: {"en":"invalid token"}
2018-3-26: {"en":"invalid token"}
2018-3-26: {"en":"invalid token"}
2018-3-26: {"en":"invalid token"}
2018-3-26: {"en":"invalid token"}
2018-3-26: {"en":"invalid token"}
2018-3-26: {"en":"invalid token"}
2018-3-26: {"en":"invalid token"}
2018-3-26: {"en":"invalid token"}
2018-3-26: {"en":"invalid token"}
2018-3-26: {"en":"invalid token"}
2018-3-26: {"en":"invalid token"}
2018-3-26: {"en":"invalid token"}
2018-3-26: {"en":"invalid token"}
2018-3-26: {"en":"invalid token"}
2018-3-26: {"en":"invalid token"}
2018-3-26: {"en":"invalid token"}
2018-3-26: {"en":"invalid token"}
2018-3-26: {"en":"invalid token"}
2018-3-26: {"en":"invalid token"}
2018-3-26: {"en":"invalid token"}
2018-3-26: {"en":"invalid token"}
2018-3-26: {"en":"invalid token"}
2018-3-26: {"en":"invalid token"}
2018-3-26: {"en":"invalid token"}
2018-3-26: {"en":"invalid token"}
2018-3-26: {"en":"invalid token"}
2018-3-26: {"en":"invalid token"}
2018-3-26: {"en":"invalid token"}
2018-3-26: {"en":"invalid token"}
2018-3-26: {"en":"invalid token"}
2018-3-26: {"en":"invalid token"}
2018-3-26: {"en":"unauthorized user"}
2018-3-26: {"en":"unauthorized user"}
2018-3-26: {"en":"unauthorized user"}
2018-3-26: "Invalid Verticals"
2018-3-26: "invalid user"
2018-3-26: "invalid user"
2018-3-26: {"status":404}
2018-3-26: {"status":404}
2018-3-26: {"status":404}
2018-3-26: {"status":404}
2018-3-26: {"status":404}
2018-3-26: {"status":404}
2018-3-26: {"status":404}
2018-3-26: {"status":404}
2018-3-26: {"status":404}
2018-3-26: {"status":404}
2018-3-26: {}
2018-3-26: {}
2018-3-26: {}
2018-3-26: {}
2018-3-26: {"status":404}
2018-3-26: {"status":404}
2018-3-26: {"status":404}
2018-3-26: {"status":404}
2018-3-26: {"status":404}
2018-3-26: {"status":404}
2018-3-26: {"status":404}
2018-3-26: {"status":404}
2018-3-26: {"status":404}
2018-3-26: {"status":404}
2018-3-26: {"en":"invalid user"}
2018-3-26: {"en":"invalid user"}
2018-3-26: {"en":"invalid user"}
2018-3-26: {"en":"invalid user"}
2018-3-26: {"en":"invalid user"}
2018-3-26: {"en":"invalid user"}
2018-3-26: "invalid user"
2018-3-26: "invalid user"
2018-3-26: "invalid user"
2018-3-26: "invalid user"
2018-3-26: {"en":"invalid user"}
2018-3-26: {"en":"invalid user"}
2018-3-26: {"en":"invalid user"}
2018-3-26: {"en":"invalid user"}
2018-3-26: {"en":"invalid user"}
2018-3-26: {"en":"invalid user"}
2018-3-26: {"en":"invalid user"}
2018-3-26: {"en":"unauthorized user"}
2018-3-26: {"en":"unauthorized user"}
2018-3-26: {"en":"unauthorized user"}
2018-3-26: "invalid user"
2018-3-26: {"en":"invalid user"}
2018-3-26: "invalid user"
2018-3-26: {"en":"invalid user"}
2018-3-26: {"en":"invalid user"}
2018-3-26: "invalid user"
2018-3-26: {"en":"invalid user"}
2018-3-26: "invalid user"
2018-3-26: {"en":"invalid user"}
2018-3-26: "invalid user"
2018-3-27: {"en":"form already added"}
2018-3-27: {}
2018-3-27: {"status":404}
2018-3-27: {"status":404}
2018-3-27: {"status":404}
2018-3-27: {"status":404}
2018-3-27: {"status":404}
2018-3-27: {"status":404}
2018-3-27: {"status":404}
2018-3-27: {"status":404}
2018-3-27: {"status":404}
2018-3-27: {"status":404}
2018-3-27: {"status":404}
2018-3-27: {"status":404}
2018-3-27: {"en":"invalid user"}
2018-3-27: {"status":404}
2018-3-27: {"status":404}
2018-3-27: {"status":404}
2018-3-27: {"status":404}
2018-3-27: {"status":404}
2018-3-27: {"status":404}
2018-3-27: {"status":404}
2018-3-27: {"status":404}
2018-3-27: {"en":"unauthorized user"}
2018-3-27: {}
2018-3-27: {}
2018-3-27: {}
2018-3-27: {}
2018-3-27: {"en":"unauthorized user"}
2018-3-27: {"en":"unauthorized user"}
2018-3-27: {"en":"unauthorized user"}
2018-3-27: {"message":"Cast to ObjectId failed for value \"undefined\" at path \"_id\" for model \"Forms\"","name":"CastError","stringValue":"\"undefined\"","kind":"ObjectId","value":"undefined","path":"_id"}
2018-3-27: {"message":"Cast to ObjectId failed for value \"undefined\" at path \"_id\" for model \"Forms\"","name":"CastError","stringValue":"\"undefined\"","kind":"ObjectId","value":"undefined","path":"_id"}
2018-3-27: {}
2018-3-27: {}
2018-3-27: {}
2018-3-27: {}
2018-3-27: {}
2018-3-27: {}
2018-3-27: {}
2018-3-27: {}
2018-3-27: {}
2018-3-27: {}
2018-3-27: {"en":"invalid token"}
2018-3-27: {"en":"invalid token"}
2018-3-27: {"en":"invalid token"}
2018-3-27: {"en":"invalid token"}
2018-3-27: {}
2018-3-27: {}
2018-3-28: {"en":"Internal Error"}
2018-3-28: {"en":"Something went wrong"}
2018-3-28: {"en":"Something went wrong"}
2018-3-28: {}
2018-3-28: {}
2018-3-28: {}
2018-3-28: {}
2018-3-28: {}
2018-3-28: {}
2018-3-28: {}
2018-3-28: {}
2018-3-28: {}
2018-3-28: {}
2018-3-28: {}
2018-3-28: {}
2018-3-28: {"en":"Something went wrong"}
2018-3-28: {"en":"Something went wrong"}
2018-3-28: {"en":"Something went wrong"}
2018-3-28: {"en":"Something went wrong"}
2018-3-28: {"en":"Something went wrong"}
2018-3-28: {"en":"Something went wrong"}
2018-3-28: {"en":"Something went wrong"}
2018-3-28: {"en":"Something went wrong"}
